…
```


And when we are ready we materialize the results with `collect()`. With data of this size, these operations are orders of magnitude faster than regular dplyr would be.

```{.r}
tictoc::tic("For reals counting")
by_state_yr <- by_state_yr_db |>
  collect()
tictoc::toc()
#> For reals counting: 0.175 sec elapsed

by_state_yr
#> # A tibble: 4,635 × 4
#>    buyer_state  year month     n
#>    <chr>       <dbl> <dbl> <dbl>
#>  1 AL           2010    12 53201
#>  2 AL           2009     3 44807
#>  3 AL           2009    11 43733
#>  4 AL           2011     4 49788
#>  5 AL           2010     1 41560
#>  6 AL           2012     5 59970
#>  7 AL           2011     7 49985
#>  8 AL           2008     4 42716
#>  9 AL           2008     7 45914
#> 10 AL           2007    10 43320
#> # ℹ 4,625 more rows
…
